{
{% if docker.storage_driver == 'devicemapper' and docker.thinpooldev is defined %}
    "storage-driver": "{{ docker.storage_driver }}",
    "storage-opts": [
    "dm.thinpooldev={{ docker.thinpooldev }}",
    "dm.use_deferred_removal=true",
    "dm.use_deferred_deletion=true"
    ]
{% endif %}
}
